@startuml

title __IMPL's Class Diagram__\n

  namespace fr.cnam.foad.nfa035.badges {
    namespace service {
      namespace impl {
        class fr.cnam.foad.nfa035.badges.service.impl.BadgesWalletRestServiceImpl {
            ~ jsonBadgeDao : JSONBadgeWalletDAO
            + deleteBadge()
            + getMetadata()
            + putBadge()
            + readBadge()
        }
      }
    }
  }
  

  fr.cnam.foad.nfa035.badges.service.impl.BadgesWalletRestServiceImpl .up.|> BadgesWalletRestService


right footer


PlantUML diagram generated by SketchIt! (https://bitbucket.org/pmesmeur/sketch.it)
For more information about this tool, please contact philippe.mesmeur@gmail.com
endfooter

@enduml
